.............
----------------------------------------------------------------------
Ran 13 tests in 0.155s

OK
Name             Stmts   Miss Branch BrPart  Cover   Missing
------------------------------------------------------------
Collatz.py          30      0     10      0   100%
TestCollatz.py      60      0      0      0   100%
------------------------------------------------------------
TOTAL               90      0     10      0   100%
