................
----------------------------------------------------------------------
Ran 16 tests in 8.103s

OK
Name             Stmts   Miss Branch BrPart  Cover   Missing
------------------------------------------------------------
Collatz.py          37      0     12      0   100%
TestCollatz.py      69      0      0      0   100%
------------------------------------------------------------
TOTAL              106      0     12      0   100%
