...............
----------------------------------------------------------------------
Ran 15 tests in 27.247s

OK
Name             Stmts   Miss Branch BrPart  Cover   Missing
------------------------------------------------------------
Collatz.py          71      2     42      2    96%   85->86, 86-87, 110->96
TestCollatz.py      66      0      0      0   100%
------------------------------------------------------------
TOTAL              137      2     42      2    98%